{
	"logs": [
		{
			"log_id":3,
            "organization":"engr-csc-sdc",
			"author":"Idontexist!",
			"date":"2020-02-06",
			"type":"Individual",
			"hours":2.5,
			"comments":"Trying to import a log"
        }
    ]
}

