{
	"logs": [
		{
			"log_id":11,
            "organization":"engr-csc-sdc",
			"author":"Idontexist!",
			"date":"2020-02-06",
			"type":"Individual",
			"hours":2.5,
			"comments":"Trying to import a log"
        }, {
			"log_id":12,
            "organization":"engr-csc-sdc",
			"author":"jgwilli8",
			"date":"2020-02-06",
			"type":"Individual",
			"hours":2.5,
			"comments":"Trying to import a log"
        }, {
			"log_id":13,
            "organization":"engr-csc-sdc",
			"author":"jgwilli8@ncsu.edu",
			"date":"2/6/20",
			"type":"Individual",
			"hours":2.5,
			"comments":"Trying to import a log"
        }, {
			"log_id":14,
            "organization":"engr-csc-sdc",
			"author":"jgwilli8@ncsu.edu",
			"date":"2020-02-06",
			"type":"Individual",
			"hours":2.5,
			"comments":"Trying to import a log"
        }, {
			"log_id":15,
            "organization":"idontexist!",
			"author":"jgwilli8@ncsu.edu",
			"date":"2020-02-06",
			"type":"Individual",
			"hours":2.5,
			"comments":"Trying to import a log"
        }
    ]
}

